<?xml version="1.0" encoding="iso-8859-1"?>
<!-- Generator: Adobe Illustrator 19.0.0, SVG Export Plug-In . SVG Version: 6.00 Build 0)  -->
<svg version="1.1" id="Capa_1" xmlns="http://www.w3.org/2000/svg" xmlns:xlink="http://www.w3.org/1999/xlink" x="0px" y="0px"
	 viewBox="0 0 512 512" style="enable-background:new 0 0 512 512;" xml:space="preserve">
<g>
	<g>
		<path d="M168,128H8c-4.418,0-8,3.582-8,8v368c0,4.418,3.582,8,8,8s8-3.582,8-8V144h144v88c0,4.418,3.582,8,8,8s8-3.582,8-8v-96
			C176,131.582,172.418,128,168,128z"/>
	</g>
</g>
<g>
	<g>
		<rect x="264" y="288" width="16" height="112"/>
	</g>
</g>
<g>
	<g>
		<path d="M504,96H344c-4.418,0-8,3.582-8,8v168c0,4.418,3.582,8,8,8s8-3.582,8-8V112h144v392c0,4.418,3.582,8,8,8s8-3.582,8-8V104
			C512,99.582,508.418,96,504,96z"/>
	</g>
</g>
<g>
	<g>
		<path d="M408,336h-64v-32c0-4.418-3.582-8-8-8h-24v-32c0-4.418-3.582-8-8-8H48c-4.418,0-8,3.582-8,8v216c0,4.418,3.582,8,8,8h40
			c4.418,0,8-3.582,8-8s-3.582-8-8-8H56v-40h240v40h-96c-4.418,0-8,3.582-8,8s3.582,8,8,8h136c4.418,0,8-3.582,8-8V352h64
			c26.51,0,48,21.49,48,48v72h-16c-4.418,0-8,3.582-8,8s3.582,8,8,8h24c4.418,0,8-3.582,8-8v-80C472,364.654,443.346,336,408,336z
			 M296,416H56V272h240V416z M328,472h-16v-48V312h16V472z"/>
	</g>
</g>
<g>
	<g>
		<path d="M144,448c-17.673,0-32,14.327-32,32c0,17.673,14.327,32,32,32s32-14.327,32-32C176,462.327,161.673,448,144,448z M144,496
			c-8.837,0-16-7.163-16-16s7.163-16,16-16s16,7.163,16,16S152.837,496,144,496z"/>
	</g>
</g>
<g>
	<g>
		<path d="M384,448c-17.673,0-32,14.327-32,32c0,17.673,14.327,32,32,32c17.673,0,32-14.327,32-32C416,462.327,401.673,448,384,448z
			 M384,496c-8.837,0-16-7.163-16-16s7.163-16,16-16s16,7.163,16,16S392.837,496,384,496z"/>
	</g>
</g>
<g>
	<g>
		<rect x="424" y="415.76" width="16" height="16"/>
	</g>
</g>
<g>
	<g>
		<rect x="8" y="72" width="16" height="16"/>
	</g>
</g>
<g>
	<g>
		<rect x="480" y="64" width="16" height="16"/>
	</g>
</g>
<g>
	<g>
		<rect x="88" y="96" width="16" height="16"/>
	</g>
</g>
<g>
	<g>
		<rect x="392" y="64" width="16" height="16"/>
	</g>
</g>
<g>
	<g>
		<rect x="88" y="16" width="16" height="16"/>
	</g>
</g>
<g>
	<g>
		<rect x="392" y="8" width="16" height="16"/>
	</g>
</g>
<g>
	<g>
		<path d="M360,0H136c-4.418,0-8,3.582-8,8v96c0,4.418,3.582,8,8,8s8-3.582,8-8V16h208v56c0,4.418,3.582,8,8,8s8-3.582,8-8V8
			C368,3.582,364.418,0,360,0z"/>
	</g>
</g>
<g>
	<g>
		<path d="M408,368h-40c-4.418,0-8,3.582-8,8v40c0,4.418,3.582,8,8,8h40c4.418,0,8-3.582,8-8v-40C416,371.582,412.418,368,408,368z
			 M400,408h-24v-24h24V408z"/>
	</g>
</g>
<g>
	<g>
		<rect x="104" y="288" width="16" height="112"/>
	</g>
</g>
<g>
	<g>
		<rect x="72" y="288" width="16" height="112"/>
	</g>
</g>
<g>
	<g>
		<rect x="136" y="288" width="16" height="112"/>
	</g>
</g>
<g>
	<g>
		<rect x="168" y="288" width="16" height="112"/>
	</g>
</g>
<g>
	<g>
		<rect x="200" y="288" width="16" height="112"/>
	</g>
</g>
<g>
	<g>
		<rect x="232" y="288" width="16" height="112"/>
	</g>
</g>
<g>
	<g>
		<path d="M47.2,32.72C43.7,13.807,27.234,0.063,8,0C3.582,0,0,3.582,0,8s3.582,8,8,8c13.255,0,24,10.745,24,24c0,4.418,3.582,8,8,8
			c13.255,0,24,10.745,24,24c0,4.418,3.582,8,8,8s8-3.582,8-8C79.968,52.711,66.174,36.192,47.2,32.72z"/>
	</g>
</g>
<g>
	<g>
		<path d="M504,0c-19.264,0.025-35.774,13.778-39.28,32.72C445.778,36.226,432.025,52.736,432,72c0,4.418,3.582,8,8,8s8-3.582,8-8
			c0-13.255,10.745-24,24-24c4.418,0,8-3.582,8-8c0-13.255,10.745-24,24-24c4.418,0,8-3.582,8-8S508.418,0,504,0z"/>
	</g>
</g>
<g>
	<g>
		<path d="M408,128h-32c-4.418,0-8,3.582-8,8v32c0,4.418,3.582,8,8,8h32c4.418,0,8-3.582,8-8v-32C416,131.582,412.418,128,408,128z
			 M400,160h-16v-16h16V160z"/>
	</g>
</g>
<g>
	<g>
		<path d="M472,128h-32c-4.418,0-8,3.582-8,8v32c0,4.418,3.582,8,8,8h32c4.418,0,8-3.582,8-8v-32C480,131.582,476.418,128,472,128z
			 M464,160h-16v-16h16V160z"/>
	</g>
</g>
<g>
	<g>
		<path d="M408,192h-32c-4.418,0-8,3.582-8,8v32c0,4.418,3.582,8,8,8h32c4.418,0,8-3.582,8-8v-32C416,195.582,412.418,192,408,192z
			 M400,224h-16v-16h16V224z"/>
	</g>
</g>
<g>
	<g>
		<path d="M472,192h-32c-4.418,0-8,3.582-8,8v32c0,4.418,3.582,8,8,8h32c4.418,0,8-3.582,8-8v-32C480,195.582,476.418,192,472,192z
			 M464,224h-16v-16h16V224z"/>
	</g>
</g>
<g>
	<g>
		<path d="M408,256h-32c-4.418,0-8,3.582-8,8v32c0,4.418,3.582,8,8,8h32c4.418,0,8-3.582,8-8v-32C416,259.582,412.418,256,408,256z
			 M400,288h-16v-16h16V288z"/>
	</g>
</g>
<g>
	<g>
		<path d="M472,256h-32c-4.418,0-8,3.582-8,8v32c0,4.418,3.582,8,8,8h32c4.418,0,8-3.582,8-8v-32C480,259.582,476.418,256,472,256z
			 M464,288h-16v-16h16V288z"/>
	</g>
</g>
<g>
	<g>
		<path d="M200,32h-32c-4.418,0-8,3.582-8,8v32c0,4.418,3.582,8,8,8h32c4.418,0,8-3.582,8-8V40C208,35.582,204.418,32,200,32z
			 M192,64h-16V48h16V64z"/>
	</g>
</g>
<g>
	<g>
		<path d="M264,32h-32c-4.418,0-8,3.582-8,8v32c0,4.418,3.582,8,8,8h32c4.418,0,8-3.582,8-8V40C272,35.582,268.418,32,264,32z
			 M256,64h-16V48h16V64z"/>
	</g>
</g>
<g>
	<g>
		<path d="M264,96h-32c-4.418,0-8,3.582-8,8v32c0,4.418,3.582,8,8,8h32c4.418,0,8-3.582,8-8v-32C272,99.582,268.418,96,264,96z
			 M256,128h-16v-16h16V128z"/>
	</g>
</g>
<g>
	<g>
		<path d="M200,96h-32c-4.418,0-8,3.582-8,8s3.582,8,8,8h24v24c0,4.418,3.582,8,8,8s8-3.582,8-8v-32C208,99.582,204.418,96,200,96z"
			/>
	</g>
</g>
<g>
	<g>
		<path d="M264,160h-32c-4.418,0-8,3.582-8,8v32c0,4.418,3.582,8,8,8h32c4.418,0,8-3.582,8-8v-32C272,163.582,268.418,160,264,160z
			 M256,192h-16v-16h16V192z"/>
	</g>
</g>
<g>
	<g>
		<path d="M328,32h-32c-4.418,0-8,3.582-8,8v32c0,4.418,3.582,8,8,8h32c4.418,0,8-3.582,8-8V40C336,35.582,332.418,32,328,32z
			 M320,64h-16V48h16V64z"/>
	</g>
</g>
<g>
	<g>
		<path d="M312,128h-8v-16h8c4.418,0,8-3.582,8-8s-3.582-8-8-8h-16c-4.418,0-8,3.582-8,8v32c0,4.418,3.582,8,8,8h16
			c4.418,0,8-3.582,8-8S316.418,128,312,128z"/>
	</g>
</g>
<g>
	<g>
		<path d="M312,192h-8v-16h8c4.418,0,8-3.582,8-8s-3.582-8-8-8h-16c-4.418,0-8,3.582-8,8v32c0,4.418,3.582,8,8,8h16
			c4.418,0,8-3.582,8-8S316.418,192,312,192z"/>
	</g>
</g>
<g>
	<g>
		<path d="M200,160c-4.418,0-8,3.582-8,8v32c0,4.418,3.582,8,8,8s8-3.582,8-8v-32C208,163.582,204.418,160,200,160z"/>
	</g>
</g>
<g>
	<g>
		<path d="M72,160H40c-4.418,0-8,3.582-8,8v32c0,4.418,3.582,8,8,8h32c4.418,0,8-3.582,8-8v-32C80,163.582,76.418,160,72,160z
			 M64,192H48v-16h16V192z"/>
	</g>
</g>
<g>
	<g>
		<path d="M136,160h-32c-4.418,0-8,3.582-8,8v32c0,4.418,3.582,8,8,8h32c4.418,0,8-3.582,8-8v-32C144,163.582,140.418,160,136,160z
			 M128,192h-16v-16h16V192z"/>
	</g>
</g>
<g>
</g>
<g>
</g>
<g>
</g>
<g>
</g>
<g>
</g>
<g>
</g>
<g>
</g>
<g>
</g>
<g>
</g>
<g>
</g>
<g>
</g>
<g>
</g>
<g>
</g>
<g>
</g>
<g>
</g>
</svg>
