<?xml version="1.0" encoding="utf-8"?>
<!-- Generator: Adobe Illustrator 19.0.0, SVG Export Plug-In . SVG Version: 6.00 Build 0)  -->
<svg version="1.1" id="Layer_1" xmlns="http://www.w3.org/2000/svg" xmlns:xlink="http://www.w3.org/1999/xlink" x="0px" y="0px"
	 viewBox="0 0 731 851.9" style="enable-background:new 0 0 731 851.9;" xml:space="preserve">
<style type="text/css">
	.st0{fill:url(#XMLID_2_);}
	.st1{fill:#FFFFFF;}
	.st2{font-family:'Oswald-Bold';}
	.st3{font-size:120px;}
	.st4{letter-spacing:14;}
</style>
<g id="XMLID_7_">
	
		<image style="overflow:visible;opacity:0.75;" width="3046" height="3046" id="XMLID_105_" xlink:href="9EC5AEE146097BE6.png"  transform="matrix(0.24 0 0 0.24 0 0)">
	</image>
	<g id="XMLID_86_">
		<linearGradient id="XMLID_2_" gradientUnits="userSpaceOnUse" x1="8" y1="358.515" x2="709.03" y2="358.515">
			<stop  offset="0" style="stop-color:#007BC1"/>
			<stop  offset="1" style="stop-color:#5F3E98"/>
		</linearGradient>
		<path id="XMLID_101_" class="st0" d="M8,8v701h701V8H8z M579.9,497.1c-58.9,94.4-168,138.3-271.2,118.8
			c-44.3-9.9-68.9-28.8-85.1-41.6c-16.9-15-32.4-32.1-41.3-52.6c-22.7-52.6-6.3-98.2,49-136.8c99.2,119.7,181,165.6,245.4,137.9
			c24.3-10.5,40.1-27.6,47.6-51.5c7.4-23.9,4.9-50.3-7.6-79.2c-24-55.7-72.6-95-145.7-117.7c-73.1-22.8-142.7-19.9-208.6,8.5
			c-27,11.6-48.7,26.8-65.1,45.4c4.3-37.3,16.7-74.2,37.9-108.2c76.5-122.8,238.1-160.3,360.8-83.8
			C618.9,212.8,656.4,374.3,579.9,497.1z M262.2,366.4c50.1-21.6,94.9-29.8,134.2-24.6c39.3,5.2,63.4,18.1,72.3,38.6
			c9.4,21.8-0.9,39.1-30.7,52C377.5,458.5,318.9,436.5,262.2,366.4z"/>
	</g>
</g>
<g id="XMLID_98_">
	
		<image style="overflow:visible;opacity:0.75;" width="3084" height="717" id="XMLID_27_" xlink:href="9EC5AEE146097BEA.png"  transform="matrix(0.24 0 0 0.24 2.0001 716.5076)">
	</image>
	<g id="XMLID_18_">
		<text id="XMLID_25_" transform="matrix(1 0 0 1 8 835.2421)" class="st1 st2 st3 st4">EVEREXPERT</text>
	</g>
</g>
</svg>
